[{"IBAN":"GE02 QJ62 2057 7032 8112 07","userid":1,"balance":552627620.75},
{"IBAN":"PS16 OYJE BR9I XVYI Q2YL DCTY JFG6 Z","userid":2,"balance":111744078.67},
{"IBAN":"NL56 LKAA 1714 0283 28","userid":3,"balance":526852271.46},
{"IBAN":"FR03 9572 7368 57PT J6WO 60ZK A48","userid":4,"balance":792550694.94},
{"IBAN":"AZ55 SFOL BBI1 G8VW UHSU OHRB TWQW","userid":5,"balance":334985509.7},
{"IBAN":"GT66 WTJ9 WHSK YA1U 426I 4OBG 8ZTO","userid":6,"balance":988189631.5},
{"IBAN":"NL26 QEHH 7418 8868 55","userid":7,"balance":210563192.11},
{"IBAN":"DO39 XFVB 5511 6933 9006 5426 1779","userid":8,"balance":466340030.32},
{"IBAN":"GB43 QOES 7507 0659 0931 10","userid":9,"balance":339079356.39},
{"IBAN":"AT12 5280 3478 2085 1620","userid":10,"balance":945458106.19},
{"IBAN":"VG10 OJGU 1372 0495 3142 7005","userid":11,"balance":726164334.74},
{"IBAN":"PT30 6711 3451 1392 0151 8128 5","userid":12,"balance":701256398.18},
{"IBAN":"FR88 0669 3667 74WL GXPF G1IC A23","userid":13,"balance":13572518.07},
{"IBAN":"NL41 FIUB 9040 1690 46","userid":14,"balance":68209983.98},
{"IBAN":"SA37 50NH CGYL TTR2 IUUT JKPB","userid":15,"balance":53845956.44},
{"IBAN":"ME09 9684 3429 7948 1849 03","userid":16,"balance":267696833.47},
{"IBAN":"TR55 8779 03CY 7O8C BETA ROES E6","userid":17,"balance":571099169.02},
{"IBAN":"FR91 0857 7986 96UT NTVP PWEC P61","userid":18,"balance":383300151.07},
{"IBAN":"AL39 7061 5413 8C1L GDLE GTJB SO59","userid":19,"balance":327652779.58},
{"IBAN":"DO16 FHBL 4504 3727 0185 7864 1596","userid":20,"balance":708357895.89},
{"IBAN":"FR30 4787 6466 76JT EZ5O 4KUO E14","userid":21,"balance":68915608.06},
{"IBAN":"BA25 5448 0832 8819 7793","userid":22,"balance":198855091.73},
{"IBAN":"AL08 7212 6627 OFJL VSYH 4BVH QUMV","userid":23,"balance":866021064.09},
{"IBAN":"TN24 7260 0733 6224 9048 8864","userid":24,"balance":23101784.11},
{"IBAN":"PK02 HHDW U8ZC MCYT HOIM PEWU","userid":25,"balance":763406264.87},
{"IBAN":"SE80 5829 6942 7316 3909 8803","userid":26,"balance":773096872.36},
{"IBAN":"PT15 4207 2787 4138 2798 3995 5","userid":27,"balance":641633211.67},
{"IBAN":"SE76 1275 9891 2500 2896 6188","userid":28,"balance":72382299.02},
{"IBAN":"FR32 2955 1655 60N0 KIDD 1JCF L96","userid":29,"balance":205591914.93},
{"IBAN":"CR86 9432 1079 0507 0193 8","userid":30,"balance":170388975.04},
{"IBAN":"PS74 MOYH RQTT S6LU ML4Q DMM3 JQDA W","userid":31,"balance":414457775.97},
{"IBAN":"RS81 5411 9756 1471 4211 94","userid":32,"balance":314376221.04},
{"IBAN":"FR43 8745 9759 38RR MZLB GOZ7 Q24","userid":33,"balance":912287383.58},
{"IBAN":"BH17 IKRI ZZPF 3CPZ 6AN9 TW","userid":34,"balance":445892871.08},
{"IBAN":"DK66 1043 7931 0552 53","userid":35,"balance":111701527.58},
{"IBAN":"SI86 4122 0944 1796 473","userid":36,"balance":482874276.59},
{"IBAN":"EE31 2495 8187 9805 9590","userid":37,"balance":388712485.38},
{"IBAN":"KW02 TXTW SLCI LQQV PEMF G5GU GMW2 P6","userid":38,"balance":991172983.76},
{"IBAN":"HR04 5041 0701 8235 5539 2","userid":39,"balance":757147797.75},
{"IBAN":"FR13 1030 1460 83VO WM6E 5H6O G68","userid":40,"balance":333526974.34},
{"IBAN":"AL80 7082 3824 25FW HUII G64X XH49","userid":41,"balance":237684180.48},
{"IBAN":"GI70 KLUX BXFR TBDE CBFH JB3","userid":42,"balance":503752470.8},
{"IBAN":"FI79 8098 1258 6928 27","userid":43,"balance":715287291.21},
{"IBAN":"HU68 3847 3662 7595 5886 5725 2173","userid":44,"balance":953956065.48},
{"IBAN":"FR24 3372 1035 94KD FQCF GV7P H26","userid":45,"balance":493739022.67},
{"IBAN":"TN74 5380 4897 9604 5248 4410","userid":46,"balance":743100997.81},
{"IBAN":"FR17 7129 9283 90DN 3FXH OCAJ 406","userid":47,"balance":388505964.03},
{"IBAN":"FR61 7147 2178 45RN RXNI G96O Q11","userid":48,"balance":495359607.3},
{"IBAN":"FR15 2836 9368 09ZR 9T8K D7BS F63","userid":49,"balance":725418485.09},
{"IBAN":"PS52 NJFT RWUX ABYK QYB0 1YMI H4SA F","userid":50,"balance":338966588.91},
{"IBAN":"FR64 6217 0404 36MX 1HKV PDZS H05","userid":51,"balance":634296385.68},
{"IBAN":"IT78 F181 8863 531W CS9L 1PNA OJE","userid":52,"balance":818601822.21},
{"IBAN":"BG70 FDFY 5797 49LT 2CAF VT","userid":53,"balance":72519130.49},
{"IBAN":"HR61 0240 0863 4097 8957 9","userid":54,"balance":811054368.61},
{"IBAN":"ME47 1089 4069 2123 0742 53","userid":55,"balance":305847948.93},
{"IBAN":"FR90 7885 4300 87MZ TFJJ NIRW E41","userid":56,"balance":319134773.68},
{"IBAN":"MK45 283A XYTO OVDX C20","userid":57,"balance":934490827.15},
{"IBAN":"HR04 5568 4341 7445 0346 0","userid":58,"balance":881677245.74},
{"IBAN":"LU63 481H PBCG KSNH J9YK","userid":59,"balance":84483757.65},
{"IBAN":"KW71 HBHT J1OD FAUY E0AJ TP41 EVAA ZU","userid":60,"balance":391257277.09},
{"IBAN":"NL04 RWHJ 4758 1964 10","userid":61,"balance":397808798.56},
{"IBAN":"FR91 1433 3172 09A9 FE65 0JB1 464","userid":62,"balance":902322425.95},
{"IBAN":"HU10 8049 6928 8064 2299 1612 5576","userid":63,"balance":175363508.06},
{"IBAN":"SE70 9637 1644 6605 6814 5116","userid":64,"balance":536364984.5},
{"IBAN":"MD57 VTHR RBDG 0FTD EUV8 FVXI","userid":65,"balance":21539638.46},
{"IBAN":"IS07 5781 5663 2725 0602 0660 27","userid":66,"balance":940027705.48},
{"IBAN":"DK41 3559 2872 9502 57","userid":67,"balance":379645279.38},
{"IBAN":"TR29 9231 481F 2YBA OUCJ OOPS C8","userid":68,"balance":113175656.6},
{"IBAN":"NL49 JCMN 6718 7988 31","userid":69,"balance":573431902.31},
{"IBAN":"LI09 6719 3ESW NEJ4 UKIO 7","userid":70,"balance":985535307.93},
{"IBAN":"LI05 8411 36HV XQHC JT3E Z","userid":71,"balance":795564487.22},
{"IBAN":"FR45 5066 2094 177E 8P10 H2ZJ B74","userid":72,"balance":202467054.76},
{"IBAN":"FR45 8916 7987 502Z OQH7 ORIB J82","userid":73,"balance":700039319.93},
{"IBAN":"FR34 7945 3208 77MZ 9PIR XMQS Q13","userid":74,"balance":329910673.51},
{"IBAN":"FI57 1392 3164 3671 12","userid":75,"balance":240358486.3},
{"IBAN":"PT18 9141 8350 2132 0619 0689 4","userid":76,"balance":628079574.41},
{"IBAN":"IT44 U803 0181 305Q G2VO L1OJ B8R","userid":77,"balance":130960692.89},
{"IBAN":"FR81 9091 7465 48KC EKMX 2IXQ D61","userid":78,"balance":270990794.82},
{"IBAN":"EE72 0094 9246 6981 2579","userid":79,"balance":127321070.4},
{"IBAN":"FI28 9522 8034 9982 82","userid":80,"balance":117344520.65},
{"IBAN":"GI42 UZEV FAYA WNWS PVGA 7SO","userid":81,"balance":29340714.16},
{"IBAN":"GR80 2167 098S QKTB TT55 WTPO MPA","userid":82,"balance":802485080.29},
{"IBAN":"MT86 SXNR 8496 5RFC ESFL ITR7 NARB 3GV","userid":83,"balance":234363888.11},
{"IBAN":"FR85 8624 4792 73JC ZYDY AYXD A74","userid":84,"balance":574836009.38},
{"IBAN":"BA43 4758 1904 7536 3350","userid":85,"balance":29950133.22},
{"IBAN":"CR67 1821 0733 0083 0282 7","userid":86,"balance":344640556.97},
{"IBAN":"DE05 6415 2614 4365 7071 47","userid":87,"balance":366617254.71},
{"IBAN":"LI19 3444 6FXV OB6I 1ILX D","userid":88,"balance":275003815.69},
{"IBAN":"FR13 8084 5996 22FU YDCM UPIJ 156","userid":89,"balance":41270707.7},
{"IBAN":"GB76 GRQG 2894 5945 5139 40","userid":90,"balance":615166595.61},
{"IBAN":"FR89 7492 0154 51PT 20QN JGM0 K88","userid":91,"balance":263829712.17},
{"IBAN":"TR83 0449 0KVH UZJR IZ4L 0MOT AZ","userid":92,"balance":913678828.94},
{"IBAN":"SM47 O350 4094 542J R3Z5 NBRK B3H","userid":93,"balance":300772142.55},
{"IBAN":"IE50 OJHS 7379 8914 7092 29","userid":94,"balance":460762781.65},
{"IBAN":"IS23 9876 1593 1911 7024 9198 41","userid":95,"balance":149571927.21},
{"IBAN":"GR75 2512 976M SGQN HSTD YIZL YST","userid":96,"balance":460114877.38},
{"IBAN":"AD66 2986 5626 HZB8 KNL5 MYMS","userid":97,"balance":140476508.29},
{"IBAN":"MT74 AGHD 2619 0WF5 ICVD L7VF VJU5 EZY","userid":98,"balance":635498064.58},
{"IBAN":"GE98 SR78 8713 7335 6739 37","userid":99,"balance":847527605.3},
{"IBAN":"FR36 2551 2039 97EQ KWE0 YT7R 067","userid":100,"balance":698740383.53}]